<svg width="32" height="32" viewBox="0 0 32 32" fill="none" xmlns="http://www.w3.org/2000/svg">
<rect width="32" height="32" rx="16" fill="#F00500"/>
<g clip-path="url(#clip0_31_107)">
<path d="M21.5728 6.11145C20.9482 6.72902 20.376 7.39835 19.8673 8.11207L19.7065 8.06029C18.779 7.76076 17.8178 7.57586 16.8491 7.51299C16.5574 7.4908 15.469 7.4908 15.1137 7.51299C14.0403 7.58325 13.2175 7.74227 12.2825 8.06399C12.2451 8.07879 12.2114 8.08988 12.1777 8.10097C11.6504 7.39096 11.0632 6.72532 10.4162 6.11515C13.5204 4.5435 17.152 4.3549 20.4021 5.59373C20.75 5.72316 21.0903 5.87478 21.4232 6.03749L21.5728 6.11145Z" fill="#F00500"/>
<path d="M27.3624 20.138C26.8911 21.4655 26.1842 22.697 25.2679 23.7694C24.7705 24.3463 24.2207 24.8751 23.6298 25.3558C22.2459 26.4578 20.6302 27.2455 18.9061 27.6597C16.9986 28.1145 15.0089 28.1145 13.1015 27.6597C11.3736 27.2455 9.76161 26.4578 8.37778 25.3558C7.78685 24.8751 7.23706 24.3463 6.73963 23.7694C4.10289 20.689 3.30251 16.4585 4.6452 12.6458C4.89952 11.9395 5.21743 11.2591 5.59891 10.6119C5.7747 10.3161 5.99162 9.98325 6.09634 9.84643C6.45539 11.3737 6.89672 12.7161 7.06128 13.2005C7.05006 13.2264 7.0351 13.256 7.02014 13.2819C6.1487 15.0273 5.67746 16.7099 5.56525 18.4997C5.56525 18.5219 5.56151 18.5478 5.56151 18.57C5.53159 19.1062 5.54655 19.3614 5.63631 19.6979C5.91682 20.7518 6.78078 21.913 8.13468 23.052C10.3525 24.9158 13.3595 26.2618 15.6372 26.4172C18.0122 26.5762 21.5166 25.2042 23.8504 23.1999C24.217 22.8782 24.561 22.538 24.8827 22.1756C25.1146 21.9093 25.4587 21.4508 25.4325 21.4508C25.425 21.4508 25.4325 21.4434 25.4474 21.436C25.4587 21.4286 25.4699 21.4175 25.4624 21.4101C25.4587 21.4064 25.4661 21.3953 25.4774 21.3916C25.4886 21.3879 25.4961 21.3805 25.4923 21.3731C25.4886 21.3657 25.4923 21.3583 25.5073 21.3546C25.5185 21.3509 25.5222 21.3398 25.5185 21.3324C25.5148 21.325 25.5185 21.3176 25.526 21.3176C25.5335 21.3176 25.5409 21.3065 25.5409 21.2991C25.5409 21.2917 25.5484 21.2806 25.5559 21.2806C25.5634 21.2806 25.5709 21.2732 25.5709 21.2659C25.5821 21.2363 25.6008 21.2067 25.6195 21.1808C25.6756 21.0957 25.9 20.7001 25.9299 20.6335C26.1431 20.1565 26.2777 19.7312 26.3413 19.3059C26.3712 19.1025 26.3899 18.729 26.375 18.6403C26.3712 18.6255 26.3712 18.5996 26.3675 18.5589C26.36 18.485 26.3563 18.374 26.3488 18.2631C26.3413 18.0967 26.3264 17.8637 26.3151 17.7491C26.1543 16.0702 25.7205 14.6982 24.8976 13.2449C24.864 13.1894 24.8341 13.1339 24.8154 13.0896C24.8079 13.0785 24.8041 13.0674 24.8004 13.06C24.9164 12.7161 25.3913 11.2776 25.7691 9.63194L25.7766 9.63934L25.8327 9.7133C25.9299 9.84273 26.188 10.2273 26.3039 10.4122C26.8313 11.2628 27.2427 12.1762 27.5344 13.1303C28.2113 15.4267 28.1552 17.8748 27.3624 20.138Z" fill="#F00500"/>
<path d="M22.5078 15.7189C22.4966 15.778 22.3208 15.9555 22.145 16.085C21.6289 16.4585 20.7051 16.8061 19.7663 16.9725C19.2315 17.0686 18.6966 17.0834 18.5358 17.0058C18.4311 16.954 18.4161 16.9133 18.4535 16.7802C18.5321 16.5028 18.7864 16.1996 19.1829 15.9148C19.3848 15.7706 20.2039 15.2788 20.5854 15.0717C21.2137 14.7315 21.7224 14.5281 22.0665 14.48C22.1749 14.4652 22.3058 14.4615 22.347 14.48C22.4143 14.5059 22.4891 14.7019 22.519 14.9386C22.534 15.0643 22.5265 15.619 22.5078 15.7189Z" fill="black"/>
<path d="M13.6962 16.9429C13.6738 16.9873 13.5616 17.0353 13.4344 17.0538C13.3072 17.0723 12.9183 17.0612 12.6976 17.0353C11.9047 16.9318 11.0632 16.6914 10.4498 16.3956C10.1057 16.2292 9.85888 16.0628 9.67562 15.8816L9.5709 15.7743L9.55968 15.6338C9.54098 15.3897 9.54472 15.0051 9.57464 14.8683C9.59334 14.7537 9.63448 14.6427 9.69058 14.5429C9.7205 14.5059 9.7205 14.5059 9.85515 14.5059C10.0197 14.5059 10.1581 14.5318 10.3825 14.6021C10.8425 14.7426 11.527 15.0828 12.361 15.5783C13.0492 15.9851 13.3072 16.1848 13.5055 16.4584C13.6401 16.6286 13.7299 16.8689 13.6962 16.9429Z" fill="black"/>
<path d="M18.9922 22.0905C18.9922 22.1016 18.9473 22.2791 18.8912 22.4899C18.8351 22.7007 18.7902 22.8708 18.7902 22.8782C18.7491 22.8819 18.7117 22.8856 18.6705 22.8819H18.5508L18.3863 23.2665C18.2965 23.4772 18.2142 23.6732 18.203 23.7028L18.1806 23.7546L18.102 23.6289L18.0235 23.5031V22.4788L17.9936 22.4862C17.93 22.501 17.4774 22.5601 17.2792 22.5786C16.4601 22.66 15.6373 22.6415 14.822 22.5269C14.6911 22.5084 14.5789 22.4936 14.5751 22.4973C14.5714 22.501 14.5751 22.7376 14.5826 23.0298L14.5938 23.5549L14.5303 23.651C14.4966 23.7028 14.4629 23.7472 14.4629 23.7509C14.4517 23.762 14.4143 23.7028 14.3283 23.5327C14.2348 23.3552 14.1675 23.1666 14.1188 22.9706L14.0927 22.8634L13.9767 22.8708L13.8608 22.8819L13.8309 22.745C13.8159 22.6711 13.7972 22.5564 13.7897 22.4936L13.7785 22.3752L13.6813 22.2902C13.6251 22.2421 13.5691 22.194 13.5578 22.1866C13.5391 22.1718 13.5316 22.146 13.5316 22.1238V22.0794L13.9992 22.0831L14.4667 22.0868L14.4816 22.1349L14.4966 22.1829L14.6574 22.1903C14.7472 22.194 15.0314 22.2014 15.2857 22.2088L15.7533 22.2199L15.8729 22.035L15.9964 21.8501H16.1535L16.1497 21.4655L16.146 21.0809L15.9403 20.9922C15.2783 20.7037 14.8893 20.3746 14.7434 19.9752C14.7135 19.8939 14.7135 19.8643 14.706 19.4945C14.7023 19.1284 14.7023 19.0951 14.7285 19.0138C14.7808 18.8289 14.9267 18.6846 15.1137 18.6366C15.1773 18.6181 15.3456 18.6181 16.2283 18.6181L17.268 18.6218L17.3839 18.6772C17.5223 18.7438 17.5859 18.7919 17.6644 18.8954C17.7542 19.0138 17.7804 19.1062 17.7804 19.3318C17.7804 19.6535 17.7579 19.9309 17.7243 20.0418C17.6757 20.1934 17.6009 20.3376 17.5074 20.4671C17.3204 20.7037 16.98 20.9404 16.6696 21.0477L16.5798 21.0809L16.5836 21.4692L16.5873 21.8575L16.6696 21.8649L16.7519 21.8723L16.8641 22.0387L16.9725 22.2051H17.4737C17.7505 22.2051 17.9936 22.2088 18.016 22.2125C18.0534 22.2199 18.0609 22.2162 18.0983 22.1534L18.1432 22.0868H18.5733C18.8949 22.072 18.9922 22.0794 18.9922 22.0905Z" fill="black"/>
<path d="M17.0174 23.1518C16.9463 23.1925 16.8977 23.211 16.8865 23.2036C16.8752 23.1999 16.8229 23.1555 16.7668 23.1148L16.6658 23.0335L16.5611 23.1444C16.3329 23.3885 16.3255 23.3996 16.2581 23.4033C16.1534 23.4144 16.131 23.3959 16.0038 23.2073C15.9365 23.1111 15.8841 23.0298 15.8841 23.0298C15.8841 23.0298 15.8355 23.0224 15.7794 23.0187L15.6747 23.0076L15.6261 23.1074L15.5774 23.2073L15.4914 23.1814C15.4241 23.1592 15.3568 23.1333 15.2932 23.1037L15.181 23.0483V22.8375L16.1759 22.8412L17.1707 22.8449L17.1745 22.9447C17.1782 23.063 17.1819 23.0594 17.0174 23.1518Z" fill="black"/>
<path d="M26.3675 18.6402C26.3638 18.6254 26.3638 18.5996 26.3601 18.5589C25.4624 18.4627 22.9005 18.4036 20.5218 20.345C20.5218 20.345 19.7551 16.8689 16.1646 16.8689C12.5742 16.8689 11.2427 20.345 11.2427 20.345C9.23056 18.2039 6.53771 18.3592 5.56529 18.4997C5.56529 18.5219 5.56155 18.5478 5.56155 18.57C5.53163 19.1062 5.54659 19.3613 5.63635 19.6979C5.91686 20.7518 6.78081 21.913 8.13472 23.0519C10.3526 24.9157 13.3596 26.2618 15.6373 26.4171C18.0122 26.5761 21.5167 25.2042 23.8505 23.1999C24.217 22.8781 24.5611 22.5379 24.8827 22.1755C25.1146 21.9093 25.4587 21.4507 25.4325 21.4507C25.425 21.4507 25.4325 21.4433 25.4475 21.4359C25.4587 21.4285 25.4699 21.4174 25.4624 21.41C25.4587 21.4063 25.4662 21.3952 25.4774 21.3915C25.4886 21.3878 25.4961 21.3805 25.4924 21.3731C25.4886 21.3657 25.4924 21.3583 25.5073 21.3546C25.5185 21.3509 25.5223 21.3398 25.5185 21.3324C25.5148 21.325 25.5185 21.3176 25.526 21.3176C25.5335 21.3176 25.541 21.3065 25.541 21.2991C25.541 21.2917 25.5485 21.2806 25.5559 21.2806C25.5634 21.2806 25.5709 21.2732 25.5709 21.2658C25.5821 21.2362 25.6008 21.2066 25.6195 21.1808C25.6756 21.0957 25.9 20.7 25.93 20.6335C26.1431 20.1564 26.2778 19.7311 26.3414 19.3059C26.3638 19.1025 26.3825 18.729 26.3675 18.6402ZM17.0174 23.1518C16.9463 23.1925 16.8977 23.211 16.8865 23.2036C16.8753 23.1999 16.8229 23.1555 16.7668 23.1148L16.6658 23.0335L16.5611 23.1444C16.3329 23.3885 16.3255 23.3996 16.2581 23.4033C16.1534 23.4144 16.131 23.3959 16.0038 23.2073C15.9365 23.1111 15.8841 23.0298 15.8841 23.0298C15.8841 23.0298 15.8355 23.0224 15.7794 23.0187L15.6747 23.0076L15.6261 23.1074L15.5774 23.2073L15.4914 23.1814C15.4241 23.1592 15.3568 23.1333 15.2932 23.1037L15.181 23.0482V22.8375L16.1759 22.8412L17.1707 22.8449L17.1745 22.9447C17.1782 23.063 17.1819 23.0593 17.0174 23.1518ZM18.8874 22.4862C18.8313 22.6969 18.7864 22.867 18.7864 22.8744C18.7453 22.8781 18.7079 22.8818 18.6667 22.8781H18.5471L18.3862 23.2664C18.2965 23.4772 18.2142 23.6732 18.203 23.7028L18.1805 23.7546L18.102 23.6288L18.0235 23.5031V22.4788L17.9935 22.4862C17.9299 22.5009 17.4774 22.5601 17.2792 22.5786C16.4601 22.66 15.6373 22.6415 14.822 22.5268C14.6911 22.5083 14.5789 22.4935 14.5751 22.4972C14.5714 22.5009 14.5751 22.7376 14.5826 23.0298L14.5938 23.5549L14.5302 23.651C14.4966 23.7028 14.4629 23.7472 14.4629 23.7509C14.4517 23.762 14.4143 23.7028 14.3283 23.5327C14.2348 23.3552 14.1674 23.1666 14.1188 22.9706L14.0926 22.8633L13.9767 22.8707L13.8608 22.8818L13.8308 22.745C13.8159 22.6711 13.7972 22.5564 13.7897 22.4935L13.7785 22.3752L13.6812 22.2902C13.6251 22.2421 13.569 22.194 13.5578 22.1866C13.5391 22.1718 13.5316 22.1459 13.5316 22.1237V22.0794L13.9991 22.0831L14.4666 22.0868L14.4816 22.1348L14.4966 22.1829L14.6574 22.1903C14.7472 22.194 15.0314 22.2014 15.2857 22.2088L15.7532 22.2199L15.8729 22.035L15.9963 21.8501H16.1534L16.1497 21.4655L16.1459 21.0809L15.9402 20.9922C15.2782 20.7037 14.8893 20.3746 14.7434 19.9752C14.7135 19.8939 14.7135 19.8643 14.706 19.4945C14.7023 19.1284 14.7023 19.0951 14.7285 19.0137C14.7808 18.8288 14.9267 18.6846 15.1137 18.6365C15.1773 18.618 15.3456 18.618 16.2282 18.618L17.268 18.6217L17.3839 18.6772C17.5223 18.7438 17.5859 18.7919 17.6644 18.8954C17.7542 19.0137 17.7803 19.1062 17.7803 19.3318C17.7803 19.6535 17.7579 19.9308 17.7242 20.0418C17.6756 20.1934 17.6008 20.3376 17.5073 20.467C17.3203 20.7037 16.98 20.9404 16.6695 21.0476L16.5798 21.0809L16.5835 21.4692L16.5873 21.8575L16.6695 21.8649L16.7518 21.8723L16.864 22.0387L16.9725 22.2051H17.4737C17.7504 22.2051 17.9935 22.2088 18.016 22.2125C18.0534 22.2199 18.0609 22.2162 18.0983 22.1533L18.1431 22.0868H18.5732C18.9061 22.0868 19.0033 22.0905 19.0033 22.1016C18.9921 22.0979 18.9435 22.2791 18.8874 22.4862Z" fill="white"/>
<path d="M26.3376 18.2631C26.3302 18.0966 26.3152 17.8637 26.304 17.749C26.1431 16.0701 25.7093 14.6982 24.8865 13.2449C24.8528 13.1894 24.8229 13.1339 24.8042 13.0896C24.7967 13.0785 24.793 13.0674 24.7892 13.06C24.9052 12.7161 25.3802 11.2775 25.7579 9.63193C26.2703 7.39834 26.5957 4.78756 25.6008 4.00359C25.6008 4.00359 23.8804 3.87785 21.5765 6.11144C20.9519 6.72901 20.3797 7.39834 19.8711 8.11206L19.7102 8.06028C18.7827 7.76075 17.8215 7.57585 16.8528 7.51298C16.5611 7.49079 15.4727 7.49079 15.1174 7.51298C14.044 7.58324 13.2212 7.74226 12.2862 8.06398C12.2488 8.07877 12.2151 8.08987 12.1815 8.10096C11.6541 7.39095 11.0669 6.72531 10.4199 6.11514C8.02253 3.87046 6.23852 3.99989 6.23852 3.99989C5.18382 4.80975 5.54287 7.53887 6.08892 9.84642C6.44797 11.3737 6.88929 12.7161 7.05386 13.2005C7.04264 13.2264 7.02768 13.256 7.01272 13.2819C6.14128 15.0273 5.67003 16.7099 5.55783 18.4997C6.53399 18.3592 9.2231 18.2002 11.239 20.345C11.239 20.345 12.5705 16.8689 16.1609 16.8689C19.7514 16.8689 20.5181 20.345 20.5181 20.345C22.8968 18.4036 25.4587 18.4664 26.3563 18.5589C26.3526 18.4849 26.3451 18.374 26.3376 18.2631ZM7.76073 11.8064C7.76073 11.8064 6.36194 8.34873 6.72099 6.374C6.78083 6.04118 6.89304 5.74904 7.06882 5.52716C7.06882 5.52716 8.6546 5.68248 11.2128 8.49295C11.2128 8.49295 10.7266 8.72592 10.0758 9.22146C10.0758 9.22146 10.0721 9.22515 10.0683 9.22515C9.36148 9.76136 8.45638 10.6119 7.76073 11.8064ZM13.6962 16.9429C13.6738 16.9872 13.5616 17.0353 13.4344 17.0538C13.3072 17.0723 12.9183 17.0612 12.6976 17.0353C11.9047 16.9318 11.0632 16.6914 10.4498 16.3956C10.1058 16.2292 9.8589 16.0627 9.67564 15.8815L9.57092 15.7743L9.5597 15.6338C9.541 15.3897 9.54474 15.0051 9.57466 14.8683C9.59336 14.7537 9.6345 14.6427 9.6906 14.5429C9.72052 14.5059 9.72052 14.5059 9.85517 14.5059C10.0197 14.5059 10.1581 14.5318 10.3825 14.602C10.8425 14.7426 11.527 15.0828 12.361 15.5783C13.0492 15.9851 13.3072 16.1848 13.5055 16.4584C13.6401 16.6285 13.7299 16.8689 13.6962 16.9429ZM22.5078 15.7188C22.4966 15.778 22.3208 15.9555 22.145 16.0849C21.6289 16.4584 20.7051 16.806 19.7663 16.9724C19.2315 17.0686 18.6967 17.0834 18.5359 17.0057C18.4311 16.954 18.4162 16.9133 18.4536 16.7802C18.5321 16.5028 18.7864 16.1996 19.1829 15.9148C19.3849 15.7706 20.2039 15.2788 20.5854 15.0717C21.2137 14.7315 21.7224 14.5281 22.0665 14.48C22.1749 14.4652 22.3058 14.4615 22.347 14.48C22.4143 14.5059 22.4891 14.7019 22.519 14.9386C22.534 15.0643 22.5265 15.619 22.5078 15.7188ZM21.887 9.22146L21.8795 9.21776C21.2511 8.72223 20.7799 8.48925 20.7799 8.48925C23.2521 5.67878 24.7818 5.52346 24.7818 5.52346C24.9501 5.74904 25.0585 6.03748 25.1184 6.3703C25.4662 8.34503 24.116 11.8064 24.116 11.8064C23.5513 10.8116 22.792 9.93147 21.887 9.22146Z" fill="#FFA409"/>
<path d="M25.1221 6.37031C24.8304 6.33333 23.4503 6.32593 21.887 9.22146L21.8795 9.21777C21.2512 8.72224 20.7799 8.48926 20.7799 8.48926C23.2521 5.67878 24.7817 5.52347 24.7817 5.52347C24.9538 5.74905 25.0623 6.03749 25.1221 6.37031Z" fill="#FF9300"/>
<path d="M24.1197 11.8064C23.5513 10.8079 22.7958 9.93148 21.8869 9.22146C23.4503 6.32593 24.8266 6.33333 25.1221 6.37031C25.4699 8.34873 24.1197 11.8064 24.1197 11.8064Z" fill="#FF8300"/>
<path d="M25.1782 6.38141C25.1595 6.37771 25.1408 6.37401 25.1221 6.37032L25.1782 6.38141Z" fill="#FF8300"/>
<path d="M11.2128 8.48926C11.2128 8.48926 10.7266 8.72224 10.0758 9.21777C10.0758 9.21777 10.0721 9.22146 10.0683 9.22146C8.44887 6.32224 7.02391 6.33333 6.71722 6.37031C6.77707 6.03749 6.88927 5.74535 7.06505 5.52347C7.06879 5.52347 8.65458 5.67878 11.2128 8.48926Z" fill="#FF9300"/>
<path d="M10.0721 9.22146C9.36145 9.76137 8.45635 10.6082 7.7607 11.8064C7.7607 11.8064 6.36191 8.34873 6.72095 6.37031C7.0239 6.33333 8.45261 6.32593 10.0721 9.22146Z" fill="#FF8300"/>
<path d="M6.72097 6.37032C6.70227 6.37401 6.67983 6.37771 6.66113 6.38141L6.72097 6.37032Z" fill="#FF8300"/>
<path d="M20.3348 13.7256C20.3348 13.7256 19.138 13.7996 19.2876 12.8751C19.4372 11.9506 20.3722 11.8396 20.634 11.8766C20.8958 11.9136 21.943 12.2834 21.756 13.06C21.569 13.8366 21.3072 13.6887 21.1576 13.7256C21.008 13.7626 20.3348 13.7256 20.3348 13.7256Z" fill="white"/>
<path d="M11.5083 13.7256C11.5083 13.7256 10.3115 13.7996 10.4611 12.8751C10.6107 11.9506 11.5457 11.8396 11.8075 11.8766C12.0693 11.9136 13.1165 12.2834 12.9295 13.06C12.7425 13.8366 12.4807 13.6887 12.3311 13.7256C12.1815 13.7626 11.5083 13.7256 11.5083 13.7256Z" fill="white"/>
</g>
<defs>
<clipPath id="clip0_31_107">
<rect width="24" height="24" fill="white" transform="translate(4 4)"/>
</clipPath>
</defs>
</svg>
